Solution of Exercises in Forecasting: Principles and Practice (3rd Ed) - 1 Solution to Chapter 2 Exercises
…
(a)

tsibble::interval(aus_production)

<interval[1]>
[1] 1Q

tsibble::interval(pelt)

<interval[1]>
[1] 1Y

gafa_stock %>% select(Close)

# A tsibble: 5,032 x 3 [!]
# Key:       Symbol [4]
   Close Date       Symbol
   <dbl> <date>     <chr> 
 1  79.0 2014-01-02 AAPL  
 2  77.3 2014-01-03 AAPL  
 3  77.7 2014-01-06 AAPL  
 4  77.1 2014-01-07 AAPL  
 5  77.6 2014-01-08 AAPL  
 6  76.6 2014-01-09 AAPL  
 7  76.1 2014-01-10 AAPL  
 8  76.5 2014-01-13 AAPL  
 9  78.1 2014-01-14 AAPL  
10  79.6 2014-01-15 AAPL  
# ℹ 5,022 more rows
…
tute1 %>% 
  mutate(Quarter = yearquarter(Quarter)) %>% 
  as_tsibble(index = Quarter) -> ts_tute

ts_tute

# A tsibble: 100 x 4 [1Q]
   Quarter Sales AdBudget   GDP
     <qtr> <dbl>    <dbl> <dbl>
 1 1981 Q1 1020.     659.  252.
 2 1981 Q2  889.     589   291.
 3 1981 Q3  795      512.  291.
 4 1981 Q4 1004.     614.  292.
 5 1982 Q1 1058.     647.  279.
 6 1982 Q2  944.     602   254 
 7 1982 Q3  778.     531.  296.
 8 1982 Q4  932.     608.  272.
 9 1983 Q1  996.     638.  260.
10 1983 Q2  908.     582.  280.
# ℹ 90 more rows
…
  year   state      y
1 1997 Alabama 324158
2 1998 Alabama 329134
3 1999 Alabama 337270
4 2000 Alabama 353614
5 2001 Alabama 332693
6 2002 Alabama 379343

us_total %>% 
  as_tsibble(index = year, key = state) -> ts_us_total

ts_us_total

# A tsibble: 1,266 x 3 [1Y]
# Key:       state [53]
    year state        y
   <int> <chr>    <int>
 1  1997 Alabama 324158
 2  1998 Alabama 329134
 3  1999 Alabama 337270
 4  2000 Alabama 353614
 5  2001 Alabama 332693
 6  2002 Alabama 379343
 7  2003 Alabama 350345
 8  2004 Alabama 382367
 9  2005 Alabama 353156
10  2006 Alabama 391093
# ℹ 1,256 more rows
…
# A tibble: 6 × 5
  Quarter    Region   State           Purpose  Trips
  <chr>      <chr>    <chr>           <chr>    <dbl>
1 1998-01-01 Adelaide South Australia Business  135.
2 1998-04-01 Adelaide South Australia Business  110.
3 1998-07-01 Adelaide South Australia Business  166.
4 1998-10-01 Adelaide South Australia Business  127.
5 1999-01-01 Adelaide South Australia Business  137.
6 1999-04-01 Adelaide South Australia Business  200.

tourism

# A tsibble: 24,320 x 5 [1Q]
# Key:       Region, State, Purpose [304]
   Quarter Region   State           Purpose  Trips
     <qtr> <chr>    <chr>           <chr>    <dbl>
 1 1998 Q1 Adelaide South Australia Business  135.
 2 1998 Q2 Adelaide South Australia Business  110.
 3 1998 Q3 Adelaide South Australia Business  166.
 4 1998 Q4 Adelaide South Australia Business  127.
 5 1999 Q1 Adelaide South Australia Business  137.
 6 1999 Q2 Adelaide South Australia Business  200.
 7 1999 Q3 Adelaide South Australia Business  169.
 8 1999 Q4 Adelaide South Australia Business  134.
 9 2000 Q1 Adelaide South Australia Business  154.
10 2000 Q2 Adelaide South Australia Business  169.
# ℹ 24,310 more rows

tourism_xl %>% 
  mutate(Quarter = yearquarter(Quarter)) %>% 
  as_tsibble(index = Quarter, key = c(Region, State, Purpose)) -> tourism_ts

tourism_ts

# A tsibble: 24,320 x 5 [1Q]
# Key:       Region, State, Purpose [304]
   Quarter Region   State           Purpose  Trips
     <qtr> <chr>    <chr>           <chr>    <dbl>
 1 1998 Q1 Adelaide South Australia Business  135.
 2 1998 Q2 Adelaide South Australia Business  110.
 3 1998 Q3 Adelaide South Australia Business  166.
 4 1998 Q4 Adelaide South Australia Business  127.
 5 1999 Q1 Adelaide South Australia Business  137.
 6 1999 Q2 Adelaide South Australia Business  200.
 7 1999 Q3 Adelaide South Australia Business  169.
 8 1999 Q4 Adelaide South Australia Business  134.
 9 2000 Q1 Adelaide South Australia Business  154.
10 2000 Q2 Adelaide South Australia Business  169.
# ℹ 24,310 more rows
…
# A tsibble: 1 x 4 [1Q]
# Key:       Region, Purpose [1]
  Region    Purpose  Quarter trips
  <chr>     <chr>      <qtr> <dbl>
1 Melbourne Visiting 2017 Q4  985.

tourism_ts %>% 
  group_by(State) %>% 
  summarise(trips = sum(Trips), .groups = "drop") -> trips_by_state

trips_by_state

# A tsibble: 640 x 3 [1Q]
# Key:       State [8]
   State Quarter trips
   <chr>   <qtr> <dbl>
 1 ACT   1998 Q1  551.
 2 ACT   1998 Q2  416.
 3 ACT   1998 Q3  436.
 4 ACT   1998 Q4  450.
 5 ACT   1999 Q1  379.
 6 ACT   1999 Q2  558.
 7 ACT   1999 Q3  449.
 8 ACT   1999 Q4  595.
 9 ACT   2000 Q1  600.
10 ACT   2000 Q2  557.
# ℹ 630 more rows

1.5 Exercise 6

The aus_arrivals data set comprises quarterly international arrivals to Australia from Japan, New Zealand, UK and the US.

Use autoplot(), gg_season() and gg_subseries() to compare the differences between the arrivals from these four countries.

Can you identify any unusual observations?

aus_arrivals

# A tsibble: 508 x 3 [1Q]
# Key:       Origin [4]
   Quarter Origin Arrivals
     <qtr> <chr>     <int>
 1 1981 Q1 Japan     14763
 2 1981 Q2 Japan      9321
 3 1981 Q3 Japan     10166
 4 1981 Q4 Japan     19509
 5 1982 Q1 Japan     17117
 6 1982 Q2 Japan     10617
 7 1982 Q3 Japan     11737
 8 1982 Q4 Japan     20961
 9 1983 Q1 Japan     20671
10 1983 Q2 Japan     12235
# ℹ 498 more rows
…
